;  LST file generated by mikroListExporter - v.2.0 
; Date/Time: 08.02.2017 16:44:53
;----------------------------------------------

;Address Opcode 	ASM
0x0000	0x29AA      	GOTO       426
_Delay_50us:
0x0003	0x3021      	MOVLW      33
0x0004	0x1283      	BCF        STATUS, 5
0x0005	0x1303      	BCF        STATUS, 6
0x0006	0x00FD      	MOVWF      R13
L_Delay_50us2:
0x0007	0x0BFD      	DECFSZ     R13, 1
0x0008	0x2807      	GOTO       L_Delay_50us2
L_end_Delay_50us:
0x0009	0x0008      	RETURN
; end of _Delay_50us
_Delay_1us:
0x000A	0x0000      	NOP
0x000B	0x0000      	NOP
L_end_Delay_1us:
0x000C	0x0008      	RETURN
; end of _Delay_1us
_Delay_5500us:
0x000D	0x300F      	MOVLW      15
0x000E	0x1283      	BCF        STATUS, 5
0x000F	0x1303      	BCF        STATUS, 6
0x0010	0x00FC      	MOVWF      R12
0x0011	0x3047      	MOVLW      71
0x0012	0x00FD      	MOVWF      R13
L_Delay_5500us5:
0x0013	0x0BFD      	DECFSZ     R13, 1
0x0014	0x2813      	GOTO       L_Delay_5500us5
0x0015	0x0BFC      	DECFSZ     R12, 1
0x0016	0x2813      	GOTO       L_Delay_5500us5
0x0017	0x0000      	NOP
0x0018	0x0000      	NOP
L_end_Delay_5500us:
0x0019	0x0008      	RETURN
; end of _Delay_5500us
_Lcd_Cmd:
0x001A	0x1283      	BCF        STATUS, 5
0x001B	0x1303      	BCF        STATUS, 6
0x001C	0x1BC3      	BTFSC      FARG_Lcd_Cmd_out_char, 7
0x001D	0x2820      	GOTO       L__Lcd_Cmd21
0x001E	0x1387      	BCF        LCD_D7, BitPos(LCD_D7+0)
0x001F	0x2821      	GOTO       L__Lcd_Cmd22
L__Lcd_Cmd21:
0x0020	0x1787      	BSF        LCD_D7, BitPos(LCD_D7+0)
L__Lcd_Cmd22:
0x0021	0x1B43      	BTFSC      FARG_Lcd_Cmd_out_char, 6
0x0022	0x2825      	GOTO       L__Lcd_Cmd23
0x0023	0x1307      	BCF        LCD_D6, BitPos(LCD_D6+0)
0x0024	0x2826      	GOTO       L__Lcd_Cmd24
L__Lcd_Cmd23:
0x0025	0x1707      	BSF        LCD_D6, BitPos(LCD_D6+0)
L__Lcd_Cmd24:
0x0026	0x1AC3      	BTFSC      FARG_Lcd_Cmd_out_char, 5
0x0027	0x282A      	GOTO       L__Lcd_Cmd25
0x0028	0x1287      	BCF        LCD_D5, BitPos(LCD_D5+0)
0x0029	0x282B      	GOTO       L__Lcd_Cmd26
L__Lcd_Cmd25:
0x002A	0x1687      	BSF        LCD_D5, BitPos(LCD_D5+0)
L__Lcd_Cmd26:
0x002B	0x1A43      	BTFSC      FARG_Lcd_Cmd_out_char, 4
0x002C	0x282F      	GOTO       L__Lcd_Cmd27
0x002D	0x1207      	BCF        LCD_D4, BitPos(LCD_D4+0)
0x002E	0x2830      	GOTO       L__Lcd_Cmd28
L__Lcd_Cmd27:
0x002F	0x1607      	BSF        LCD_D4, BitPos(LCD_D4+0)
L__Lcd_Cmd28:
0x0030	0x183B      	BTFSC      __Lib_Lcd_cmd_status, BitPos(__Lib_Lcd_cmd_status+0)
0x0031	0x2834      	GOTO       L__Lcd_Cmd29
0x0032	0x1507      	BSF        LCD_RS, BitPos(LCD_RS+0)
0x0033	0x2835      	GOTO       L__Lcd_Cmd30
L__Lcd_Cmd29:
0x0034	0x1107      	BCF        LCD_RS, BitPos(LCD_RS+0)
L__Lcd_Cmd30:
0x0035	0x1587      	BSF        LCD_EN, BitPos(LCD_EN+0)
0x0036	0x200A      	CALL       _Delay_1us
0x0037	0x1187      	BCF        LCD_EN, BitPos(LCD_EN+0)
0x0038	0x19C3      	BTFSC      FARG_Lcd_Cmd_out_char, 3
0x0039	0x283C      	GOTO       L__Lcd_Cmd31
0x003A	0x1387      	BCF        LCD_D7, BitPos(LCD_D7+0)
0x003B	0x283D      	GOTO       L__Lcd_Cmd32
L__Lcd_Cmd31:
0x003C	0x1787      	BSF        LCD_D7, BitPos(LCD_D7+0)
L__Lcd_Cmd32:
0x003D	0x1943      	BTFSC      FARG_Lcd_Cmd_out_char, 2
0x003E	0x2841      	GOTO       L__Lcd_Cmd33
0x003F	0x1307      	BCF        LCD_D6, BitPos(LCD_D6+0)
0x0040	0x2842      	GOTO       L__Lcd_Cmd34
L__Lcd_Cmd33:
0x0041	0x1707      	BSF        LCD_D6, BitPos(LCD_D6+0)
L__Lcd_Cmd34:
0x0042	0x18C3      	BTFSC      FARG_Lcd_Cmd_out_char, 1
0x0043	0x2846      	GOTO       L__Lcd_Cmd35
0x0044	0x1287      	BCF        LCD_D5, BitPos(LCD_D5+0)
0x0045	0x2847      	GOTO       L__Lcd_Cmd36
L__Lcd_Cmd35:
0x0046	0x1687      	BSF        LCD_D5, BitPos(LCD_D5+0)
L__Lcd_Cmd36:
0x0047	0x1843      	BTFSC      FARG_Lcd_Cmd_out_char, 0
0x0048	0x284B      	GOTO       L__Lcd_Cmd37
0x0049	0x1207      	BCF        LCD_D4, BitPos(LCD_D4+0)
0x004A	0x284C      	GOTO       L__Lcd_Cmd38
L__Lcd_Cmd37:
0x004B	0x1607      	BSF        LCD_D4, BitPos(LCD_D4+0)
L__Lcd_Cmd38:
0x004C	0x183B      	BTFSC      __Lib_Lcd_cmd_status, BitPos(__Lib_Lcd_cmd_status+0)
0x004D	0x2850      	GOTO       L__Lcd_Cmd39
0x004E	0x1507      	BSF        LCD_RS, BitPos(LCD_RS+0)
0x004F	0x2851      	GOTO       L__Lcd_Cmd40
L__Lcd_Cmd39:
0x0050	0x1107      	BCF        LCD_RS, BitPos(LCD_RS+0)
L__Lcd_Cmd40:
0x0051	0x1587      	BSF        LCD_EN, BitPos(LCD_EN+0)
0x0052	0x200A      	CALL       _Delay_1us
0x0053	0x1187      	BCF        LCD_EN, BitPos(LCD_EN+0)
0x0054	0x1C3B      	BTFSS      __Lib_Lcd_cmd_status, BitPos(__Lib_Lcd_cmd_status+0)
0x0055	0x2858      	GOTO       L_Lcd_Cmd0
0x0056	0x200D      	CALL       _Delay_5500us
0x0057	0x2859      	GOTO       L_Lcd_Cmd1
L_Lcd_Cmd0:
0x0058	0x2003      	CALL       _Delay_50us
L_Lcd_Cmd1:
L_end_Lcd_Cmd:
0x0059	0x0008      	RETURN
; end of _Lcd_Cmd
_____DoICP:
0x005A	0x1283      	BCF        STATUS, 5
0x005B	0x1303      	BCF        STATUS, 6
0x005C	0x083A      	MOVF       ___DoICPAddr+1, 0
0x005D	0x008A      	MOVWF      PCLATH
0x005E	0x0839      	MOVF       ___DoICPAddr, 0
0x005F	0x0082      	MOVWF      PCL
L_end_____DoICP:
0x0060	0x0008      	RETURN
; end of _____DoICP
_Mul_32x32_U:
0x0061	0x1283      	BCF        STATUS, 5
0x0062	0x1303      	BCF        STATUS, 6
0x0063	0x3022      	MOVLW      34
0x0064	0x00FC      	MOVWF      R12
0x0065	0x01F8      	CLRF       R8
0x0066	0x01F9      	CLRF       R9
0x0067	0x01FA      	CLRF       R10
0x0068	0x01FB      	CLRF       R11
_NEXT:
0x0069	0x03FC      	DECF       R12, 1
0x006A	0x1903      	BTFSC      STATUS, 2
0x006B	0x2897      	GOTO       _EXIT2
0x006C	0x1003      	BCF        STATUS, 0
_LOOP:
0x006D	0x0CFB      	RRF        R11, 1
0x006E	0x0CFA      	RRF        R10, 1
0x006F	0x0CF9      	RRF        R9, 1
0x0070	0x0CF8      	RRF        R8, 1
0x0071	0x0CF3      	RRF        R3, 1
0x0072	0x0CF2      	RRF        R2, 1
0x0073	0x0CF1      	RRF        R1, 1
0x0074	0x0CF0      	RRF        R0, 1
0x0075	0x1C03      	BTFSS      STATUS, 0
0x0076	0x2869      	GOTO       _NEXT
0x0077	0x03FC      	DECF       R12, 1
0x0078	0x1903      	BTFSC      STATUS, 2
0x0079	0x2889      	GOTO       _EXIT1
0x007A	0x0874      	MOVF       R4, 0
0x007B	0x07F8      	ADDWF      R8, 1
0x007C	0x0875      	MOVF       R5, 0
0x007D	0x1803      	BTFSC      STATUS, 0
0x007E	0x0F75      	INCFSZ     R5, 0
0x007F	0x07F9      	ADDWF      R9, 1
0x0080	0x0876      	MOVF       R6, 0
0x0081	0x1803      	BTFSC      STATUS, 0
0x0082	0x0F76      	INCFSZ     R6, 0
0x0083	0x07FA      	ADDWF      R10, 1
0x0084	0x0877      	MOVF       R7, 0
0x0085	0x1803      	BTFSC      STATUS, 0
0x0086	0x0F77      	INCFSZ     R7, 0
0x0087	0x07FB      	ADDWF      R11, 1
0x0088	0x286D      	GOTO       _LOOP
_EXIT1:
0x0089	0x0874      	MOVF       R4, 0
0x008A	0x07F8      	ADDWF      R8, 1
0x008B	0x0875      	MOVF       R5, 0
0x008C	0x1803      	BTFSC      STATUS, 0
0x008D	0x0F75      	INCFSZ     R5, 0
0x008E	0x07F9      	ADDWF      R9, 1
0x008F	0x0876      	MOVF       R6, 0
0x0090	0x1803      	BTFSC      STATUS, 0
0x0091	0x0F76      	INCFSZ     R6, 0
0x0092	0x07FA      	ADDWF      R10, 1
0x0093	0x0877      	MOVF       R7, 0
0x0094	0x1803      	BTFSC      STATUS, 0
0x0095	0x0F77      	INCFSZ     R7, 0
0x0096	0x07FB      	ADDWF      R11, 1
_EXIT2:
L_end_Mul_32x32_U:
0x0097	0x0008      	RETURN
; end of _Mul_32x32_U
_Lcd_Chr_CP:
0x0098	0x1283      	BCF        STATUS, 5
0x0099	0x1303      	BCF        STATUS, 6
0x009A	0x103B      	BCF        __Lib_Lcd_cmd_status, BitPos(__Lib_Lcd_cmd_status+0)
0x009B	0x0842      	MOVF       FARG_Lcd_Chr_CP_out_char, 0
0x009C	0x00C3      	MOVWF      FARG_Lcd_Cmd_out_char
0x009D	0x201A      	CALL       _Lcd_Cmd
0x009E	0x143B      	BSF        __Lib_Lcd_cmd_status, BitPos(__Lib_Lcd_cmd_status+0)
L_end_Lcd_Chr_CP:
0x009F	0x0008      	RETURN
; end of _Lcd_Chr_CP
_Lcd_Out:
0x00A0	0x28B2      	GOTO       L_Lcd_Out11
L_Lcd_Out13:
0x00A1	0x3080      	MOVLW      128
0x00A2	0x1283      	BCF        STATUS, 5
0x00A3	0x1303      	BCF        STATUS, 6
0x00A4	0x00BC      	MOVWF      FARG_Lcd_Out_row
0x00A5	0x28C5      	GOTO       L_Lcd_Out12
L_Lcd_Out14:
0x00A6	0x30C0      	MOVLW      192
0x00A7	0x00BC      	MOVWF      FARG_Lcd_Out_row
0x00A8	0x28C5      	GOTO       L_Lcd_Out12
L_Lcd_Out15:
0x00A9	0x3094      	MOVLW      148
0x00AA	0x00BC      	MOVWF      FARG_Lcd_Out_row
0x00AB	0x28C5      	GOTO       L_Lcd_Out12
L_Lcd_Out16:
0x00AC	0x30D4      	MOVLW      212
0x00AD	0x00BC      	MOVWF      FARG_Lcd_Out_row
0x00AE	0x28C5      	GOTO       L_Lcd_Out12
L_Lcd_Out17:
0x00AF	0x3080      	MOVLW      128
0x00B0	0x00BC      	MOVWF      FARG_Lcd_Out_row
0x00B1	0x28C5      	GOTO       L_Lcd_Out12
L_Lcd_Out11:
0x00B2	0x1283      	BCF        STATUS, 5
0x00B3	0x1303      	BCF        STATUS, 6
0x00B4	0x083C      	MOVF       FARG_Lcd_Out_row, 0
0x00B5	0x3A01      	XORLW      1
0x00B6	0x1903      	BTFSC      STATUS, 2
0x00B7	0x28A1      	GOTO       L_Lcd_Out13
0x00B8	0x083C      	MOVF       FARG_Lcd_Out_row, 0
0x00B9	0x3A02      	XORLW      2
0x00BA	0x1903      	BTFSC      STATUS, 2
0x00BB	0x28A6      	GOTO       L_Lcd_Out14
0x00BC	0x083C      	MOVF       FARG_Lcd_Out_row, 0
0x00BD	0x3A03      	XORLW      3
0x00BE	0x1903      	BTFSC      STATUS, 2
0x00BF	0x28A9      	GOTO       L_Lcd_Out15
0x00C0	0x083C      	MOVF       FARG_Lcd_Out_row, 0
0x00C1	0x3A04      	XORLW      4
0x00C2	0x1903      	BTFSC      STATUS, 2
0x00C3	0x28AC      	GOTO       L_Lcd_Out16
0x00C4	0x28AF      	GOTO       L_Lcd_Out17
L_Lcd_Out12:
0x00C5	0x033D      	DECF       FARG_Lcd_Out_column, 0
0x00C6	0x00F0      	MOVWF      R0
0x00C7	0x083C      	MOVF       FARG_Lcd_Out_row, 0
0x00C8	0x07F0      	ADDWF      R0, 1
0x00C9	0x0870      	MOVF       R0, 0
0x00CA	0x00BC      	MOVWF      FARG_Lcd_Out_row
0x00CB	0x0870      	MOVF       R0, 0
0x00CC	0x00C3      	MOVWF      FARG_Lcd_Cmd_out_char
0x00CD	0x201A      	CALL       _Lcd_Cmd
0x00CE	0x103B      	BCF        __Lib_Lcd_cmd_status, BitPos(__Lib_Lcd_cmd_status+0)
0x00CF	0x01BF      	CLRF       Lcd_Out_i_L0
L_Lcd_Out18:
0x00D0	0x083F      	MOVF       Lcd_Out_i_L0, 0
0x00D1	0x073E      	ADDWF      FARG_Lcd_Out_text, 0
0x00D2	0x0084      	MOVWF      FSR
0x00D3	0x0800      	MOVF       INDF, 0
0x00D4	0x1903      	BTFSC      STATUS, 2
0x00D5	0x28DE      	GOTO       L_Lcd_Out19
0x00D6	0x083F      	MOVF       Lcd_Out_i_L0, 0
0x00D7	0x073E      	ADDWF      FARG_Lcd_Out_text, 0
0x00D8	0x0084      	MOVWF      FSR
0x00D9	0x0800      	MOVF       INDF, 0
0x00DA	0x00C2      	MOVWF      FARG_Lcd_Chr_CP_out_char
0x00DB	0x2098      	CALL       _Lcd_Chr_CP
0x00DC	0x0ABF      	INCF       Lcd_Out_i_L0, 1
0x00DD	0x28D0      	GOTO       L_Lcd_Out18
L_Lcd_Out19:
0x00DE	0x143B      	BSF        __Lib_Lcd_cmd_status, BitPos(__Lib_Lcd_cmd_status+0)
L_end_Lcd_Out:
0x00DF	0x0008      	RETURN
; end of _Lcd_Out
_Lcd_Init:
0x00E0	0x1683      	BSF        STATUS, 5
0x00E1	0x1303      	BCF        STATUS, 6
0x00E2	0x1187      	BCF        LCD_EN_Direction, BitPos(LCD_EN_Direction+0)
0x00E3	0x1107      	BCF        LCD_RS_Direction, BitPos(LCD_RS_Direction+0)
0x00E4	0x1207      	BCF        LCD_D4_Direction, BitPos(LCD_D4_Direction+0)
0x00E5	0x1287      	BCF        LCD_D5_Direction, BitPos(LCD_D5_Direction+0)
0x00E6	0x1307      	BCF        LCD_D6_Direction, BitPos(LCD_D6_Direction+0)
0x00E7	0x1387      	BCF        LCD_D7_Direction, BitPos(LCD_D7_Direction+0)
0x00E8	0x1283      	BCF        STATUS, 5
0x00E9	0x1187      	BCF        LCD_EN, BitPos(LCD_EN+0)
0x00EA	0x1107      	BCF        LCD_RS, BitPos(LCD_RS+0)
0x00EB	0x1387      	BCF        LCD_D7, BitPos(LCD_D7+0)
0x00EC	0x1307      	BCF        LCD_D6, BitPos(LCD_D6+0)
0x00ED	0x1287      	BCF        LCD_D5, BitPos(LCD_D5+0)
0x00EE	0x1207      	BCF        LCD_D4, BitPos(LCD_D4+0)
0x00EF	0x200D      	CALL       _Delay_5500us
0x00F0	0x200D      	CALL       _Delay_5500us
0x00F1	0x200D      	CALL       _Delay_5500us
0x00F2	0x1687      	BSF        LCD_D5, BitPos(LCD_D5+0)
0x00F3	0x1607      	BSF        LCD_D4, BitPos(LCD_D4+0)
0x00F4	0x1587      	BSF        LCD_EN, BitPos(LCD_EN+0)
0x00F5	0x200A      	CALL       _Delay_1us
0x00F6	0x1187      	BCF        LCD_EN, BitPos(LCD_EN+0)
0x00F7	0x200D      	CALL       _Delay_5500us
0x00F8	0x1587      	BSF        LCD_EN, BitPos(LCD_EN+0)
0x00F9	0x200A      	CALL       _Delay_1us
0x00FA	0x1187      	BCF        LCD_EN, BitPos(LCD_EN+0)
0x00FB	0x200D      	CALL       _Delay_5500us
0x00FC	0x1587      	BSF        LCD_EN, BitPos(LCD_EN+0)
0x00FD	0x200A      	CALL       _Delay_1us
0x00FE	0x1187      	BCF        LCD_EN, BitPos(LCD_EN+0)
0x00FF	0x200D      	CALL       _Delay_5500us
0x0100	0x1207      	BCF        LCD_D4, BitPos(LCD_D4+0)
0x0101	0x1587      	BSF        LCD_EN, BitPos(LCD_EN+0)
0x0102	0x200A      	CALL       _Delay_1us
0x0103	0x1187      	BCF        LCD_EN, BitPos(LCD_EN+0)
0x0104	0x200D      	CALL       _Delay_5500us
0x0105	0x1587      	BSF        LCD_EN, BitPos(LCD_EN+0)
0x0106	0x200A      	CALL       _Delay_1us
0x0107	0x1187      	BCF        LCD_EN, BitPos(LCD_EN+0)
0x0108	0x1287      	BCF        LCD_D5, BitPos(LCD_D5+0)
0x0109	0x1787      	BSF        LCD_D7, BitPos(LCD_D7+0)
0x010A	0x1587      	BSF        LCD_EN, BitPos(LCD_EN+0)
0x010B	0x200A      	CALL       _Delay_1us
0x010C	0x1187      	BCF        LCD_EN, BitPos(LCD_EN+0)
0x010D	0x200D      	CALL       _Delay_5500us
0x010E	0x1387      	BCF        LCD_D7, BitPos(LCD_D7+0)
0x010F	0x1607      	BSF        LCD_D4, BitPos(LCD_D4+0)
0x0110	0x1587      	BSF        LCD_EN, BitPos(LCD_EN+0)
0x0111	0x200A      	CALL       _Delay_1us
0x0112	0x1187      	BCF        LCD_EN, BitPos(LCD_EN+0)
0x0113	0x1207      	BCF        LCD_D4, BitPos(LCD_D4+0)
0x0114	0x1587      	BSF        LCD_EN, BitPos(LCD_EN+0)
0x0115	0x200A      	CALL       _Delay_1us
0x0116	0x1187      	BCF        LCD_EN, BitPos(LCD_EN+0)
0x0117	0x200D      	CALL       _Delay_5500us
0x0118	0x1587      	BSF        LCD_EN, BitPos(LCD_EN+0)
0x0119	0x200A      	CALL       _Delay_1us
0x011A	0x1187      	BCF        LCD_EN, BitPos(LCD_EN+0)
0x011B	0x1607      	BSF        LCD_D4, BitPos(LCD_D4+0)
0x011C	0x1587      	BSF        LCD_EN, BitPos(LCD_EN+0)
0x011D	0x200A      	CALL       _Delay_1us
0x011E	0x1187      	BCF        LCD_EN, BitPos(LCD_EN+0)
0x011F	0x200D      	CALL       _Delay_5500us
0x0120	0x1207      	BCF        LCD_D4, BitPos(LCD_D4+0)
0x0121	0x1587      	BSF        LCD_EN, BitPos(LCD_EN+0)
0x0122	0x200A      	CALL       _Delay_1us
0x0123	0x1187      	BCF        LCD_EN, BitPos(LCD_EN+0)
0x0124	0x1787      	BSF        LCD_D7, BitPos(LCD_D7+0)
0x0125	0x1707      	BSF        LCD_D6, BitPos(LCD_D6+0)
0x0126	0x1687      	BSF        LCD_D5, BitPos(LCD_D5+0)
0x0127	0x1607      	BSF        LCD_D4, BitPos(LCD_D4+0)
0x0128	0x1587      	BSF        LCD_EN, BitPos(LCD_EN+0)
0x0129	0x200A      	CALL       _Delay_1us
0x012A	0x1187      	BCF        LCD_EN, BitPos(LCD_EN+0)
0x012B	0x200D      	CALL       _Delay_5500us
0x012C	0x143B      	BSF        __Lib_Lcd_cmd_status, BitPos(__Lib_Lcd_cmd_status+0)
L_end_Lcd_Init:
0x012D	0x0008      	RETURN
; end of _Lcd_Init
_VDelay_ms:
0x012E	0x30D0      	MOVLW      208
0x012F	0x1283      	BCF        STATUS, 5
0x0130	0x1303      	BCF        STATUS, 6
0x0131	0x00BE      	MOVWF      VDelay_ms_NumberOfCyc_L0
0x0132	0x3007      	MOVLW      7
0x0133	0x00BF      	MOVWF      VDelay_ms_NumberOfCyc_L0+1
0x0134	0x01C0      	CLRF       VDelay_ms_NumberOfCyc_L0+2
0x0135	0x01C1      	CLRF       VDelay_ms_NumberOfCyc_L0+3
0x0136	0x30D0      	MOVLW      208
0x0137	0x00F0      	MOVWF      R0
0x0138	0x3007      	MOVLW      7
0x0139	0x00F1      	MOVWF      R0+1
0x013A	0x3000      	MOVLW      0
0x013B	0x00F2      	MOVWF      R0+2
0x013C	0x3000      	MOVLW      0
0x013D	0x00F3      	MOVWF      R0+3
0x013E	0x083C      	MOVF       FARG_VDelay_ms_Time_ms, 0
0x013F	0x00F4      	MOVWF      R4
0x0140	0x083D      	MOVF       FARG_VDelay_ms_Time_ms+1, 0
0x0141	0x00F5      	MOVWF      R4+1
0x0142	0x01F6      	CLRF       R4+2
0x0143	0x01F7      	CLRF       R4+3
0x0144	0x2061      	CALL       _Mul_32x32_U
0x0145	0x0870      	MOVF       R0, 0
0x0146	0x00BE      	MOVWF      VDelay_ms_NumberOfCyc_L0
0x0147	0x0871      	MOVF       R0+1, 0
0x0148	0x00BF      	MOVWF      VDelay_ms_NumberOfCyc_L0+1
0x0149	0x0872      	MOVF       R0+2, 0
0x014A	0x00C0      	MOVWF      VDelay_ms_NumberOfCyc_L0+2
0x014B	0x0873      	MOVF       R0+3, 0
0x014C	0x00C1      	MOVWF      VDelay_ms_NumberOfCyc_L0+3
0x014D	0x3000      	MOVLW      0
0x014E	0x0273      	SUBWF      R0+3, 0
0x014F	0x1D03      	BTFSS      STATUS, 2
0x0150	0x295B      	GOTO       L__VDelay_ms38
0x0151	0x3000      	MOVLW      0
0x0152	0x0272      	SUBWF      R0+2, 0
0x0153	0x1D03      	BTFSS      STATUS, 2
0x0154	0x295B      	GOTO       L__VDelay_ms38
0x0155	0x3002      	MOVLW      2
0x0156	0x0271      	SUBWF      R0+1, 0
0x0157	0x1D03      	BTFSS      STATUS, 2
0x0158	0x295B      	GOTO       L__VDelay_ms38
0x0159	0x30B2      	MOVLW      178
0x015A	0x0270      	SUBWF      R0, 0
L__VDelay_ms38:
0x015B	0x1803      	BTFSC      STATUS, 0
0x015C	0x295E      	GOTO       L_VDelay_ms15
0x015D	0x299D      	GOTO       L_end_VDelay_ms
L_VDelay_ms15:
0x015E	0x30B2      	MOVLW      178
0x015F	0x00F0      	MOVWF      R0
0x0160	0x3002      	MOVLW      2
0x0161	0x00F1      	MOVWF      R0+1
0x0162	0x01F2      	CLRF       R0+2
0x0163	0x01F3      	CLRF       R0+3
0x0164	0x0870      	MOVF       R0, 0
0x0165	0x02BE      	SUBWF      VDelay_ms_NumberOfCyc_L0, 1
0x0166	0x0871      	MOVF       R0+1, 0
0x0167	0x1C03      	BTFSS      STATUS, 0
0x0168	0x0F71      	INCFSZ     R0+1, 0
0x0169	0x02BF      	SUBWF      VDelay_ms_NumberOfCyc_L0+1, 1
0x016A	0x0872      	MOVF       R0+2, 0
0x016B	0x1C03      	BTFSS      STATUS, 0
0x016C	0x0F72      	INCFSZ     R0+2, 0
0x016D	0x02C0      	SUBWF      VDelay_ms_NumberOfCyc_L0+2, 1
0x016E	0x0873      	MOVF       R0+3, 0
0x016F	0x1C03      	BTFSS      STATUS, 0
0x0170	0x0F73      	INCFSZ     R0+3, 0
0x0171	0x02C1      	SUBWF      VDelay_ms_NumberOfCyc_L0+3, 1
0x0172	0x3005      	MOVLW      5
0x0173	0x00F0      	MOVWF      R0
0x0174	0x0870      	MOVF       R0, 0
L__VDelay_ms39:
0x0175	0x1903      	BTFSC      STATUS, 2
0x0176	0x297E      	GOTO       L__VDelay_ms40
0x0177	0x0CC1      	RRF        VDelay_ms_NumberOfCyc_L0+3, 1
0x0178	0x0CC0      	RRF        VDelay_ms_NumberOfCyc_L0+2, 1
0x0179	0x0CBF      	RRF        VDelay_ms_NumberOfCyc_L0+1, 1
0x017A	0x0CBE      	RRF        VDelay_ms_NumberOfCyc_L0, 1
0x017B	0x13C1      	BCF        VDelay_ms_NumberOfCyc_L0+3, 7
0x017C	0x3EFF      	ADDLW      255
0x017D	0x2975      	GOTO       L__VDelay_ms39
L__VDelay_ms40:
L_VDelay_ms16:
0x017E	0x083E      	MOVF       VDelay_ms_NumberOfCyc_L0, 0
0x017F	0x00F0      	MOVWF      R0
0x0180	0x083F      	MOVF       VDelay_ms_NumberOfCyc_L0+1, 0
0x0181	0x00F1      	MOVWF      R0+1
0x0182	0x0840      	MOVF       VDelay_ms_NumberOfCyc_L0+2, 0
0x0183	0x00F2      	MOVWF      R0+2
0x0184	0x0841      	MOVF       VDelay_ms_NumberOfCyc_L0+3, 0
0x0185	0x00F3      	MOVWF      R0+3
0x0186	0x3001      	MOVLW      1
0x0187	0x02BE      	SUBWF      VDelay_ms_NumberOfCyc_L0, 1
0x0188	0x1C03      	BTFSS      STATUS, 0
0x0189	0x02BF      	SUBWF      VDelay_ms_NumberOfCyc_L0+1, 1
0x018A	0x1C03      	BTFSS      STATUS, 0
0x018B	0x02C0      	SUBWF      VDelay_ms_NumberOfCyc_L0+2, 1
0x018C	0x1C03      	BTFSS      STATUS, 0
0x018D	0x02C1      	SUBWF      VDelay_ms_NumberOfCyc_L0+3, 1
0x018E	0x0870      	MOVF       R0, 0
0x018F	0x0471      	IORWF      R0+1, 0
0x0190	0x0472      	IORWF      R0+2, 0
0x0191	0x0473      	IORWF      R0+3, 0
0x0192	0x1903      	BTFSC      STATUS, 2
0x0193	0x299D      	GOTO       L_VDelay_ms17
0x0194	0x0000      	NOP
0x0195	0x0000      	NOP
0x0196	0x0000      	NOP
0x0197	0x0000      	NOP
0x0198	0x0000      	NOP
0x0199	0x0000      	NOP
0x019A	0x0000      	NOP
0x019B	0x0000      	NOP
0x019C	0x297E      	GOTO       L_VDelay_ms16
L_VDelay_ms17:
L_end_VDelay_ms:
0x019D	0x0008      	RETURN
; end of _VDelay_ms
___CC2DW:
_CC2D_Loop1:
0x019E	0x205A      	CALL       _____DoICP
0x019F	0x118A      	BCF        PCLATH, 3
0x01A0	0x120A      	BCF        PCLATH, 4
0x01A1	0x0080      	MOVWF      INDF
0x01A2	0x0A84      	INCF       FSR, 1
0x01A3	0x0AB9      	INCF       ___DoICPAddr, 1
0x01A4	0x1903      	BTFSC      STATUS, 2
0x01A5	0x0ABA      	INCF       ___DoICPAddr+1, 1
0x01A6	0x03F0      	DECF       R0, 1
0x01A7	0x1D03      	BTFSS      STATUS, 2
0x01A8	0x299E      	GOTO       _CC2D_Loop1
L_end___CC2DW:
0x01A9	0x0008      	RETURN
; end of ___CC2DW
_main:
0x01AA	0x3049      	MOVLW      73
0x01AB	0x1283      	BCF        STATUS, 5
0x01AC	0x1303      	BCF        STATUS, 6
0x01AD	0x00A0      	MOVWF      ?lstr1_Lab11_2
0x01AE	0x3044      	MOVLW      68
0x01AF	0x00A1      	MOVWF      33
0x01B0	0x3045      	MOVLW      69
0x01B1	0x00A2      	MOVWF      34
0x01B2	0x3020      	MOVLW      32
0x01B3	0x00A3      	MOVWF      35
0x01B4	0x306D      	MOVLW      109
0x01B5	0x00A4      	MOVWF      36
0x01B6	0x3069      	MOVLW      105
0x01B7	0x00A5      	MOVWF      37
0x01B8	0x306B      	MOVLW      107
0x01B9	0x00A6      	MOVWF      38
0x01BA	0x3072      	MOVLW      114
0x01BB	0x00A7      	MOVWF      39
0x01BC	0x306F      	MOVLW      111
0x01BD	0x00A8      	MOVWF      40
0x01BE	0x3043      	MOVLW      67
0x01BF	0x00A9      	MOVWF      41
0x01C0	0x3020      	MOVLW      32
0x01C1	0x00AA      	MOVWF      42
0x01C2	0x3050      	MOVLW      80
0x01C3	0x00AB      	MOVWF      43
0x01C4	0x3052      	MOVLW      82
0x01C5	0x00AC      	MOVWF      44
0x01C6	0x304F      	MOVLW      79
0x01C7	0x00AD      	MOVWF      45
0x01C8	0x3020      	MOVLW      32
0x01C9	0x00AE      	MOVWF      46
0x01CA	0x3066      	MOVLW      102
0x01CB	0x00AF      	MOVWF      47
0x01CC	0x306F      	MOVLW      111
0x01CD	0x00B0      	MOVWF      48
0x01CE	0x3072      	MOVLW      114
0x01CF	0x00B1      	MOVWF      49
0x01D0	0x3020      	MOVLW      32
0x01D1	0x00B2      	MOVWF      50
0x01D2	0x3050      	MOVLW      80
0x01D3	0x00B3      	MOVWF      51
0x01D4	0x3049      	MOVLW      73
0x01D5	0x00B4      	MOVWF      52
0x01D6	0x3043      	MOVLW      67
0x01D7	0x00B5      	MOVWF      53
0x01D8	0x01B6      	CLRF       54
0x01D9	0x30F4      	MOVLW      244
0x01DA	0x00B7      	MOVWF      _time
0x01DB	0x3001      	MOVLW      1
0x01DC	0x00B8      	MOVWF      56
0x01DD	0x20E0      	CALL       _Lcd_Init
0x01DE	0x3001      	MOVLW      1
0x01DF	0x00C3      	MOVWF      FARG_Lcd_Cmd_out_char
0x01E0	0x201A      	CALL       _Lcd_Cmd
0x01E1	0x300C      	MOVLW      12
0x01E2	0x00C3      	MOVWF      FARG_Lcd_Cmd_out_char
0x01E3	0x201A      	CALL       _Lcd_Cmd
0x01E4	0x3001      	MOVLW      1
0x01E5	0x00BC      	MOVWF      FARG_Lcd_Out_row
0x01E6	0x3002      	MOVLW      2
0x01E7	0x00BD      	MOVWF      FARG_Lcd_Out_column
0x01E8	0x3020      	MOVLW      ?lstr1_Lab11_2
0x01E9	0x00BE      	MOVWF      FARG_Lcd_Out_text
0x01EA	0x20A0      	CALL       _Lcd_Out
L_main0:
0x01EB	0x3018      	MOVLW      24
0x01EC	0x00C3      	MOVWF      FARG_Lcd_Cmd_out_char
0x01ED	0x201A      	CALL       _Lcd_Cmd
0x01EE	0x0837      	MOVF       _time, 0
0x01EF	0x00BC      	MOVWF      FARG_VDelay_ms_Time_ms
0x01F0	0x0838      	MOVF       _time+1, 0
0x01F1	0x00BD      	MOVWF      FARG_VDelay_ms_Time_ms+1
0x01F2	0x212E      	CALL       _VDelay_ms
0x01F3	0x29EB      	GOTO       L_main0
L_end_main:
0x01F4	0x29F4      	GOTO       $+0
; end of _main
Symbol List:
//** Routines locations **
//ADDRESS    SIZE    PROCEDURE
//----------------------------------------------
0x0003       [7]    _Delay_50us
0x000A       [3]    _Delay_1us
0x000D      [13]    _Delay_5500us
0x001A      [64]    _Lcd_Cmd
0x005A       [7]    _____DoICP
0x0061      [55]    _Mul_32x32_U
0x0098       [8]    _Lcd_Chr_CP
0x00A0      [64]    _Lcd_Out
0x00E0      [78]    _Lcd_Init
0x012E     [112]    _VDelay_ms
0x019E      [12]    ___CC2DW
0x01AA      [75]    _main
//** Variables locations ** 
//ADDRESS    SIZE    VARIABLE
//----------------------------------------------
0x0000       [1]    INDF
0x0002       [1]    PCL
0x0003       [1]    STATUS
0x0004       [1]    FSR
0x0007       [0]    RC2_bit
0x0007       [0]    RC3_bit
0x0007       [0]    RC6_bit
0x0007       [0]    RC5_bit
0x0007       [0]    RC4_bit
0x0007       [0]    RC7_bit
0x0007       [0]    LCD_EN
0x0007       [0]    LCD_D4
0x0007       [0]    LCD_D5
0x0007       [0]    LCD_RS
0x0007       [0]    LCD_D6
0x0007       [0]    LCD_D7
0x000A       [1]    PCLATH
0x0020      [23]    ?lstr1_Lab11_2
0x0037       [2]    _time
0x0039       [2]    ___DoICPAddr
0x003B       [0]    __Lib_Lcd_cmd_status
0x003C       [1]    FARG_Lcd_Out_row
0x003C       [2]    FARG_VDelay_ms_Time_ms
0x003D       [1]    FARG_Lcd_Out_column
0x003E       [1]    FARG_Lcd_Out_text
0x003E       [4]    VDelay_ms_NumberOfCyc_L0
0x003F       [1]    Lcd_Out_i_L0
0x0042       [1]    FARG_Lcd_Chr_CP_out_char
0x0043       [1]    FARG_Lcd_Cmd_out_char
0x0070       [1]    R0
0x0071       [1]    R1
0x0072       [1]    R2
0x0073       [1]    R3
0x0074       [1]    R4
0x0075       [1]    R5
0x0076       [1]    R6
0x0077       [1]    R7
0x0078       [1]    R8
0x0079       [1]    R9
0x007A       [1]    R10
0x007B       [1]    R11
0x007C       [1]    R12
0x007D       [1]    R13
0x007E       [1]    R14
0x007F       [1]    R15
0x0087       [0]    TRISC3_bit
0x0087       [0]    TRISC4_bit
0x0087       [0]    TRISC5_bit
0x0087       [0]    TRISC2_bit
0x0087       [0]    TRISC6_bit
0x0087       [0]    LCD_D5_Direction
0x0087       [0]    LCD_D6_Direction
0x0087       [0]    LCD_D7_Direction
0x0087       [0]    LCD_D4_Direction
0x0087       [0]    TRISC7_bit
0x0087       [0]    LCD_RS_Direction
0x0087       [0]    LCD_EN_Direction
