:020000001628C0
:0E0006008312031321088A00200882000800DC
:1000140003208A110A128000840AA00A0319A10A83
:08002400F003031D0A28080087
:10002C008316031306150711831207158316811304
:10003C008312061D22281E2807113330FB00BB300B
:10004C00FC00DF30FD00FD0B2928FC0B2928FB0BE5
:0C005C0029280000000007151E2833288A
:02400E007A3BFB
:00000001FF
