:020000002A28AC
:10000800FF00030E8301A2000A08A3008A01013041
:100018008706063081000B1123088A00220E830010
:06002800FF0E7F0E09002F
:0E002E008312031321088A00200882000800B4
:10003C0017208A110A128000840AA00A0319A10A47
:08004C00F003031D1E2808004B
:1000540083160313071003308100063083128100D6
:080064008B168B173428352898
:02400E007A3BFB
:00000001FF
