main
	__CC2DW
		____DoICP
	Lcd_Init
		Delay_5500us
		Delay_1us
	Lcd_Cmd
		Delay_1us
		Delay_5500us
		Delay_50us
	Lcd_Out
		Lcd_Cmd
			Delay_1us
			Delay_5500us
			Delay_50us
		Lcd_Chr_CP
			Lcd_Cmd
				Delay_1us
				Delay_5500us
				Delay_50us
	VDelay_ms
		Mul_32x32_U
