:100000000C948D030C9400000C9400000C940000E0
:100010000C9400000C9400000C9400000C94000060
:100020000C9400000C9400000C9400000C94000050
:100030000C9400000C9400000C9400000C94000040
:100040000C9400000C9400000C9400000C94000030
:040050000C9400000C
:10071A00BFE5BDBFB4E0BEBF0E9408042F923F925E
:10072A004F925F9225DFB1E02B2E60DEBFE64B2EA3
:10073A00B0E05B2EB3E03B2EB1E02B2E29DFB0E612
:10074A004B2EB0E05B2EB3E03B2EB2E02B2E20DF27
:10075A0025E01FE002EF0A95F1F71A95E1F72A95CD
:10076A00D1F7B6B3B0FD1AC020906D0058DFCFDEC6
:10077A0029E216E900E80A95F1F71A95E1F72A95B0
:10078A00D1F7B6B3B0FD09C000916E00003029F46C
:10079A0000916E000F5F00936E00E3CFB6B3B0FF17
:1007AA0019C000916E000030A9F020906D0037DF6B
:1007BA00AEDE22E51BE200E00A95F1F71A95E1F7B1
:1007CA002A95D1F70000000000000000B0E0B093C5
:1007DA006E00E4CFA8CF5F904F903F902F90FFCF4D
:0007EA000F
:10057A002F92B7B3BE7FB7BBB8B3B160B8BB1FDEAB
:10058A00B1E02B2E33DFBCE02B2E30DF2F90089505
:00059A0061
:1001C800B0913500B77FB0933500B0913500BB7F53
:1001D800B0933500B0913500BF77B0933500B0913A
:1001E8003500BF7BB0933500B0913500BF7DB0932B
:1001F8003500B0913500BF7EB0933500B091340022
:10020800B860B0933400B0913400B460B093340057
:10021800B0913400B061B0933400B0913400B06252
:10022800B0933400B0913400B064B0933400B0910E
:100238003400B068B093340032DF31DF30DFB09182
:100248003500B062B0933500B0913500B061B0931D
:100258003500B0913500B860B0933500FCDEB09140
:100268003500B77FB09335001ADFB0913500B8601C
:10027800B0933500F0DEB0913500B77FB09335000C
:100288000EDFB0913500B860B0933500E4DEB09170
:100298003500B77FB093350002DFB0913500BF7EDF
:1002A800B0933500B0913500B860B0933500D3DE17
:1002B800B0913500B77FB0933500F1DEB0913500CD
:1002C800B860B0933500C7DEB0913500B77FB09302
:1002D8003500B0913500BF7DB0933500B091350041
:1002E800B068B0933500B0913500B860B093350070
:1002F800B2DEB0913500B77FB0933500D0DEB09153
:100308003500BF77B0933500B0913500B061B09338
:100318003500B0913500B860B09335009CDEB091DF
:100328003500B77FB0933500B0913500BF7EB093EC
:100338003500B0913500B860B09335008CDEB091CF
:100348003500B77FB0933500AADEB0913500B860AC
:10035800B093350080DEB0913500B77FB09335009B
:10036800B0913500B061B0933500B0913500B860F8
:10037800B093350070DEB0913500B77FB09335008B
:100388008EDEB0913500BF7EB0933500B091350058
:10039800B860B09335005FDEB0913500B77FB09399
:1003A8003500B0913500B068B0933500B091350094
:1003B800B064B0933500B0913500B062B0933500A9
:1003C800B0913500B061B0933500B0913500B86098
:1003D800B093350040DEB0913500B77FB09335005B
:0E03E8005EDEB0918B00B160B0938B00089583
:1000A6001AE303E20A95F1F71A95E1F7000000005A
:0200B6000895AB
:0C005E0002E00A95F1F700000000089590
:1003F60027FAB0913500B7F9B093350026FAB091D7
:100406003500B6F9B093350025FAB0913500B5F947
:10041600B093350024FAB0913500B4F9B0933500A5
:10042600B0918B0000903500E894B0FF689402F814
:1004360000923500B0913500B860B09335000CDEFF
:10044600B0913500B77FB093350023FAB0913500EF
:10045600B7F9B093350022FAB0913500B6F9B093EA
:10046600350021FAB0913500B5F9B093350020FA80
:10047600B0913500B4F9B0933500B0918B0000907F
:100486003500E894B0FF689402F800923500B09108
:100496003500B860B0933500DFDDB0913500B77F29
:1004A600B0933500B0918B00B0FF02C0F9DD01C0FA
:0404B600CEDD0895FA
:0A00540005E80A95F1F70000089591
:10059A002F920FC0B0E82B2E19C0B0EC2B2E16C02C
:1005AA00B4E92B2E13C0B4ED2B2E10C0B0E82B2EBD
:1005BA000DC0B1E02B1671F3B2E02B1671F3B3E064
:1005CA002B1671F3B4E02B1671F3F0CF032D015003
:1005DA00020D202E202E0ADFB0918B00BE7FB09331
:1005EA008B0010E0E12FF0E0E40DF51D00810023FF
:1005FA0079F0E12FF0E0E40DF51D00811F932F92B1
:10060A00202E56DF2F901F91012F0F5F102FEACF58
:0E061A00B0918B00B160B0938B002F900895CB
:1004BA00B0918B00BE7FB0938B0098DFB0918B0018
:0804CA00B160B0938B000895AE
:10062800CF93DF93CDB7DEB72A97CDBFDEBF219634
:100638002F9222243DDD20E017FD2FEF322F48E8CE
:1006480053E160E070E041DF4FEF53E060E070E0BD
:100658005CDD89019A010C831D83AE0148875987A7
:1006680048EE53E028DD8B0128853985F9010083A0
:100678008E010F5F1F4F0887198744E650E00C81F1
:100688001D8119DD8B014AE050E015DD8C012885BC
:100698003985F90100838E010E5F1F4F088719877E
:1006A8004AE050E00C811D8106DD8B014AE050E0F4
:1006B80002DD8C0128853985F90100838E010D5FE3
:1006C8001F4F088719874AE050E00C811D81F3DC31
:1006D8008C0128853985F901008340E0443090F485
:1006E80005E810E0242F30E0200F311F8E01E42FA1
:1006F800F0E0E00FF11F0081F9010083042F0F5F84
:10070800402FECCF2F902996CDBFDEBFDF91CF9140
:02071800089542
:0600B800EBDFD7DF089525
:10009000B5E3B0938900B0E0B0938A00B7E8B6B991
:0600A000B0E0B7B90895BD
:10006A0007B1007E022907B9B6B1B064B6B9B6B114
:10007A00B6FF01C0FCCF24B130E005B1102F002734
:06008A00022B132B089568
:1004D200049FD001159FF001249FE00DF11D069F9E
:1004E200E00DF11D349FF00D259FF00D169FF00DCC
:1004F200079FF00D3327149FB00DE11DF31F059FD9
:0C050200B00DE11DF31F8D019F01089555
:10011200C9019A01AB01B80197FB092E05260ED041
:1001220057FD04D014D00AD0001C38F450954095E5
:10013200309521953F4F4F4F5F4F0895F6F79095B9
:100142008095709561957F4F8F4F9F4F0895A1E2E3
:100152001A2EAA1BBB1BFD010DC0AA1FBB1FEE1F3F
:10016200FF1FA217B307E407F50720F0A21BB30B8A
:10017200E40BF50B661F771F881F991F1A9469F706
:1001820060957095809590959B01AC01BD01CF0162
:020192000895CE
:1000BE00C801BA0197FB092E07260AD077FD04D096
:1000CE000CD006D000201AF4709561957F4F0895DC
:1000DE00F6F7909581959F4F0895AA1BBB1B51E192
:1000EE0007C0AA1FBB1FA617B70710F0A61BB70B9A
:1000FE00881F991F5A95A9F780959095BC01CD013F
:04010E0008950895B3
:100518002F923F924F925F92B1E02B2E68DFB0E8A6
:100528004B2EB0E05B2EB4E03B2EB2E02B2E31D048
:1005380000918500005D202EBCDFBEE22B2EB9DFC6
:1005480000918600005D202EB4DF00918700005DD9
:10055800202EAFDF00918800005D202EAADFBDE7C6
:100568002B2EB0E03B2E12DE5F904F903F902F90E5
:020578000895E4
:1001940010E0E12FF0E0E20DF31D0081002389F06F
:1001A400E12FF0E0E20DF31D00811F933F922F92A7
:1001B400202E81D12F903F901F91012F0F5F102F80
:0401C400E8CF0895E3
:0A050E0005900D920197E1F70895A2
:10081000A0E6B0E0EAEEF7E085E290E00E94870211
:02082000089539
:0D07EA00746F206D65617375726520550098
:0107F7000001
:0107F8000000
:0E07F9005072657373206B6579205342310096
:0308070020560078
:05080A0055203D200017
:00000001FF
