main
	init
		Lcd_Init
			Delay_5500us
			Delay_1us
		Lcd_Cmd
			Delay_1us
			Delay_5500us
			Delay_50us
	Lcd_Cmd
	Lcd_Out
		Lcd_Cmd
		Lcd_Chr_CP
			Lcd_Cmd
	get_volts
		ADC_Read
			ADC_Init
			ADC_Get_Sample
		HWMul_32x32
		Div_32x32_S
		Div_16x16_S
	out_display
		Lcd_Cmd
		Lcd_Out
		Lcd_Chr_CP
		Lcd_Out_CP
			Lcd_Chr_CP
	__CC2DW
