;  LST file generated by mikroListExporter - v.2.0 
; Date/Time: 09.02.2017 19:36:48
;----------------------------------------------

;Address Opcode 	ASM
0x0000	0x28BD      	GOTO       189
_____DoICP:
0x0003	0x1283      	BCF        STATUS, 5
0x0004	0x1303      	BCF        STATUS, 6
0x0005	0x0821      	MOVF       ___DoICPAddr+1, 0
0x0006	0x008A      	MOVWF      PCLATH
0x0007	0x0820      	MOVF       ___DoICPAddr, 0
0x0008	0x0082      	MOVWF      PCL
L_end_____DoICP:
0x0009	0x0008      	RETURN
; end of _____DoICP
_Mul_32x32_U:
0x000A	0x1283      	BCF        STATUS, 5
0x000B	0x1303      	BCF        STATUS, 6
0x000C	0x3022      	MOVLW      34
0x000D	0x00FC      	MOVWF      R12
0x000E	0x01F8      	CLRF       R8
0x000F	0x01F9      	CLRF       R9
0x0010	0x01FA      	CLRF       R10
0x0011	0x01FB      	CLRF       R11
_NEXT:
0x0012	0x03FC      	DECF       R12, 1
0x0013	0x1903      	BTFSC      STATUS, 2
0x0014	0x2840      	GOTO       _EXIT2
0x0015	0x1003      	BCF        STATUS, 0
_LOOP:
0x0016	0x0CFB      	RRF        R11, 1
0x0017	0x0CFA      	RRF        R10, 1
0x0018	0x0CF9      	RRF        R9, 1
0x0019	0x0CF8      	RRF        R8, 1
0x001A	0x0CF3      	RRF        R3, 1
0x001B	0x0CF2      	RRF        R2, 1
0x001C	0x0CF1      	RRF        R1, 1
0x001D	0x0CF0      	RRF        R0, 1
0x001E	0x1C03      	BTFSS      STATUS, 0
0x001F	0x2812      	GOTO       _NEXT
0x0020	0x03FC      	DECF       R12, 1
0x0021	0x1903      	BTFSC      STATUS, 2
0x0022	0x2832      	GOTO       _EXIT1
0x0023	0x0874      	MOVF       R4, 0
0x0024	0x07F8      	ADDWF      R8, 1
0x0025	0x0875      	MOVF       R5, 0
0x0026	0x1803      	BTFSC      STATUS, 0
0x0027	0x0F75      	INCFSZ     R5, 0
0x0028	0x07F9      	ADDWF      R9, 1
0x0029	0x0876      	MOVF       R6, 0
0x002A	0x1803      	BTFSC      STATUS, 0
0x002B	0x0F76      	INCFSZ     R6, 0
0x002C	0x07FA      	ADDWF      R10, 1
0x002D	0x0877      	MOVF       R7, 0
0x002E	0x1803      	BTFSC      STATUS, 0
0x002F	0x0F77      	INCFSZ     R7, 0
0x0030	0x07FB      	ADDWF      R11, 1
0x0031	0x2816      	GOTO       _LOOP
_EXIT1:
0x0032	0x0874      	MOVF       R4, 0
0x0033	0x07F8      	ADDWF      R8, 1
0x0034	0x0875      	MOVF       R5, 0
0x0035	0x1803      	BTFSC      STATUS, 0
0x0036	0x0F75      	INCFSZ     R5, 0
0x0037	0x07F9      	ADDWF      R9, 1
0x0038	0x0876      	MOVF       R6, 0
0x0039	0x1803      	BTFSC      STATUS, 0
0x003A	0x0F76      	INCFSZ     R6, 0
0x003B	0x07FA      	ADDWF      R10, 1
0x003C	0x0877      	MOVF       R7, 0
0x003D	0x1803      	BTFSC      STATUS, 0
0x003E	0x0F77      	INCFSZ     R7, 0
0x003F	0x07FB      	ADDWF      R11, 1
_EXIT2:
L_end_Mul_32x32_U:
0x0040	0x0008      	RETURN
; end of _Mul_32x32_U
_VDelay_ms:
0x0041	0x30D0      	MOVLW      208
0x0042	0x1283      	BCF        STATUS, 5
0x0043	0x1303      	BCF        STATUS, 6
0x0044	0x00A4      	MOVWF      VDelay_ms_NumberOfCyc_L0
0x0045	0x3007      	MOVLW      7
0x0046	0x00A5      	MOVWF      VDelay_ms_NumberOfCyc_L0+1
0x0047	0x01A6      	CLRF       VDelay_ms_NumberOfCyc_L0+2
0x0048	0x01A7      	CLRF       VDelay_ms_NumberOfCyc_L0+3
0x0049	0x30D0      	MOVLW      208
0x004A	0x00F0      	MOVWF      R0
0x004B	0x3007      	MOVLW      7
0x004C	0x00F1      	MOVWF      R0+1
0x004D	0x3000      	MOVLW      0
0x004E	0x00F2      	MOVWF      R0+2
0x004F	0x3000      	MOVLW      0
0x0050	0x00F3      	MOVWF      R0+3
0x0051	0x0822      	MOVF       FARG_VDelay_ms_Time_ms, 0
0x0052	0x00F4      	MOVWF      R4
0x0053	0x0823      	MOVF       FARG_VDelay_ms_Time_ms+1, 0
0x0054	0x00F5      	MOVWF      R4+1
0x0055	0x01F6      	CLRF       R4+2
0x0056	0x01F7      	CLRF       R4+3
0x0057	0x200A      	CALL       _Mul_32x32_U
0x0058	0x0870      	MOVF       R0, 0
0x0059	0x00A4      	MOVWF      VDelay_ms_NumberOfCyc_L0
0x005A	0x0871      	MOVF       R0+1, 0
0x005B	0x00A5      	MOVWF      VDelay_ms_NumberOfCyc_L0+1
0x005C	0x0872      	MOVF       R0+2, 0
0x005D	0x00A6      	MOVWF      VDelay_ms_NumberOfCyc_L0+2
0x005E	0x0873      	MOVF       R0+3, 0
0x005F	0x00A7      	MOVWF      VDelay_ms_NumberOfCyc_L0+3
0x0060	0x3000      	MOVLW      0
0x0061	0x0273      	SUBWF      R0+3, 0
0x0062	0x1D03      	BTFSS      STATUS, 2
0x0063	0x286E      	GOTO       L__VDelay_ms38
0x0064	0x3000      	MOVLW      0
0x0065	0x0272      	SUBWF      R0+2, 0
0x0066	0x1D03      	BTFSS      STATUS, 2
0x0067	0x286E      	GOTO       L__VDelay_ms38
0x0068	0x3002      	MOVLW      2
0x0069	0x0271      	SUBWF      R0+1, 0
0x006A	0x1D03      	BTFSS      STATUS, 2
0x006B	0x286E      	GOTO       L__VDelay_ms38
0x006C	0x30B2      	MOVLW      178
0x006D	0x0270      	SUBWF      R0, 0
L__VDelay_ms38:
0x006E	0x1803      	BTFSC      STATUS, 0
0x006F	0x2871      	GOTO       L_VDelay_ms15
0x0070	0x28B0      	GOTO       L_end_VDelay_ms
L_VDelay_ms15:
0x0071	0x30B2      	MOVLW      178
0x0072	0x00F0      	MOVWF      R0
0x0073	0x3002      	MOVLW      2
0x0074	0x00F1      	MOVWF      R0+1
0x0075	0x01F2      	CLRF       R0+2
0x0076	0x01F3      	CLRF       R0+3
0x0077	0x0870      	MOVF       R0, 0
0x0078	0x02A4      	SUBWF      VDelay_ms_NumberOfCyc_L0, 1
0x0079	0x0871      	MOVF       R0+1, 0
0x007A	0x1C03      	BTFSS      STATUS, 0
0x007B	0x0F71      	INCFSZ     R0+1, 0
0x007C	0x02A5      	SUBWF      VDelay_ms_NumberOfCyc_L0+1, 1
0x007D	0x0872      	MOVF       R0+2, 0
0x007E	0x1C03      	BTFSS      STATUS, 0
0x007F	0x0F72      	INCFSZ     R0+2, 0
0x0080	0x02A6      	SUBWF      VDelay_ms_NumberOfCyc_L0+2, 1
0x0081	0x0873      	MOVF       R0+3, 0
0x0082	0x1C03      	BTFSS      STATUS, 0
0x0083	0x0F73      	INCFSZ     R0+3, 0
0x0084	0x02A7      	SUBWF      VDelay_ms_NumberOfCyc_L0+3, 1
0x0085	0x3005      	MOVLW      5
0x0086	0x00F0      	MOVWF      R0
0x0087	0x0870      	MOVF       R0, 0
L__VDelay_ms39:
0x0088	0x1903      	BTFSC      STATUS, 2
0x0089	0x2891      	GOTO       L__VDelay_ms40
0x008A	0x0CA7      	RRF        VDelay_ms_NumberOfCyc_L0+3, 1
0x008B	0x0CA6      	RRF        VDelay_ms_NumberOfCyc_L0+2, 1
0x008C	0x0CA5      	RRF        VDelay_ms_NumberOfCyc_L0+1, 1
0x008D	0x0CA4      	RRF        VDelay_ms_NumberOfCyc_L0, 1
0x008E	0x13A7      	BCF        VDelay_ms_NumberOfCyc_L0+3, 7
0x008F	0x3EFF      	ADDLW      255
0x0090	0x2888      	GOTO       L__VDelay_ms39
L__VDelay_ms40:
L_VDelay_ms16:
0x0091	0x0824      	MOVF       VDelay_ms_NumberOfCyc_L0, 0
0x0092	0x00F0      	MOVWF      R0
0x0093	0x0825      	MOVF       VDelay_ms_NumberOfCyc_L0+1, 0
0x0094	0x00F1      	MOVWF      R0+1
0x0095	0x0826      	MOVF       VDelay_ms_NumberOfCyc_L0+2, 0
0x0096	0x00F2      	MOVWF      R0+2
0x0097	0x0827      	MOVF       VDelay_ms_NumberOfCyc_L0+3, 0
0x0098	0x00F3      	MOVWF      R0+3
0x0099	0x3001      	MOVLW      1
0x009A	0x02A4      	SUBWF      VDelay_ms_NumberOfCyc_L0, 1
0x009B	0x1C03      	BTFSS      STATUS, 0
0x009C	0x02A5      	SUBWF      VDelay_ms_NumberOfCyc_L0+1, 1
0x009D	0x1C03      	BTFSS      STATUS, 0
0x009E	0x02A6      	SUBWF      VDelay_ms_NumberOfCyc_L0+2, 1
0x009F	0x1C03      	BTFSS      STATUS, 0
0x00A0	0x02A7      	SUBWF      VDelay_ms_NumberOfCyc_L0+3, 1
0x00A1	0x0870      	MOVF       R0, 0
0x00A2	0x0471      	IORWF      R0+1, 0
0x00A3	0x0472      	IORWF      R0+2, 0
0x00A4	0x0473      	IORWF      R0+3, 0
0x00A5	0x1903      	BTFSC      STATUS, 2
0x00A6	0x28B0      	GOTO       L_VDelay_ms17
0x00A7	0x0000      	NOP
0x00A8	0x0000      	NOP
0x00A9	0x0000      	NOP
0x00AA	0x0000      	NOP
0x00AB	0x0000      	NOP
0x00AC	0x0000      	NOP
0x00AD	0x0000      	NOP
0x00AE	0x0000      	NOP
0x00AF	0x2891      	GOTO       L_VDelay_ms16
L_VDelay_ms17:
L_end_VDelay_ms:
0x00B0	0x0008      	RETURN
; end of _VDelay_ms
___CC2DW:
_CC2D_Loop1:
0x00B1	0x2003      	CALL       _____DoICP
0x00B2	0x118A      	BCF        PCLATH, 3
0x00B3	0x120A      	BCF        PCLATH, 4
0x00B4	0x0080      	MOVWF      INDF
0x00B5	0x0A84      	INCF       FSR, 1
0x00B6	0x0AA0      	INCF       ___DoICPAddr, 1
0x00B7	0x1903      	BTFSC      STATUS, 2
0x00B8	0x0AA1      	INCF       ___DoICPAddr+1, 1
0x00B9	0x03F0      	DECF       R0, 1
0x00BA	0x1D03      	BTFSS      STATUS, 2
0x00BB	0x28B1      	GOTO       _CC2D_Loop1
L_end___CC2DW:
0x00BC	0x0008      	RETURN
; end of ___CC2DW
_main:
0x00BD	0x3070      	MOVLW      112
0x00BE	0x1683      	BSF        STATUS, 5
0x00BF	0x1303      	BCF        STATUS, 6
0x00C0	0x0086      	MOVWF      TRISB
0x00C1	0x1283      	BCF        STATUS, 5
0x00C2	0x0186      	CLRF       PORTB
0x00C3	0x0187      	CLRF       PORTC
L_main0:
0x00C4	0x28E7      	GOTO       L_main2
L_main4:
0x00C5	0x28F8      	GOTO       L_main3
L_main5:
0x00C6	0x1407      	BSF        PORTC, 0
0x00C7	0x30E8      	MOVLW      232
0x00C8	0x00A2      	MOVWF      FARG_VDelay_ms_Time_ms
0x00C9	0x3003      	MOVLW      3
0x00CA	0x00A3      	MOVWF      FARG_VDelay_ms_Time_ms+1
0x00CB	0x2041      	CALL       _VDelay_ms
0x00CC	0x1006      	BCF        PORTB, 0
0x00CD	0x28F8      	GOTO       L_main3
L_main6:
0x00CE	0x1486      	BSF        PORTB, 1
0x00CF	0x30E8      	MOVLW      232
0x00D0	0x00A2      	MOVWF      FARG_VDelay_ms_Time_ms
0x00D1	0x3003      	MOVLW      3
0x00D2	0x00A3      	MOVWF      FARG_VDelay_ms_Time_ms+1
0x00D3	0x2041      	CALL       _VDelay_ms
0x00D4	0x1086      	BCF        PORTB, 1
0x00D5	0x28F8      	GOTO       L_main3
L_main7:
0x00D6	0x1506      	BSF        PORTB, 2
0x00D7	0x30E8      	MOVLW      232
0x00D8	0x00A2      	MOVWF      FARG_VDelay_ms_Time_ms
0x00D9	0x3003      	MOVLW      3
0x00DA	0x00A3      	MOVWF      FARG_VDelay_ms_Time_ms+1
0x00DB	0x2041      	CALL       _VDelay_ms
0x00DC	0x1106      	BCF        PORTB, 2
0x00DD	0x28F8      	GOTO       L_main3
L_main8:
0x00DE	0x30E0      	MOVLW      224
0x00DF	0x0086      	MOVWF      PORTB
0x00E0	0x30E8      	MOVLW      232
0x00E1	0x00A2      	MOVWF      FARG_VDelay_ms_Time_ms
0x00E2	0x3003      	MOVLW      3
0x00E3	0x00A3      	MOVWF      FARG_VDelay_ms_Time_ms+1
0x00E4	0x2041      	CALL       _VDelay_ms
0x00E5	0x0186      	CLRF       PORTB
0x00E6	0x28F8      	GOTO       L_main3
L_main2:
0x00E7	0x0806      	MOVF       PORTB, 0
0x00E8	0x3A00      	XORLW      0
0x00E9	0x1903      	BTFSC      STATUS, 2
0x00EA	0x28C5      	GOTO       L_main4
0x00EB	0x0806      	MOVF       PORTB, 0
0x00EC	0x3A06      	XORLW      6
0x00ED	0x1903      	BTFSC      STATUS, 2
0x00EE	0x28C6      	GOTO       L_main5
0x00EF	0x0806      	MOVF       PORTB, 0
0x00F0	0x3A05      	XORLW      5
0x00F1	0x1903      	BTFSC      STATUS, 2
0x00F2	0x28CE      	GOTO       L_main6
0x00F3	0x0806      	MOVF       PORTB, 0
0x00F4	0x3A03      	XORLW      3
0x00F5	0x1903      	BTFSC      STATUS, 2
0x00F6	0x28D6      	GOTO       L_main7
0x00F7	0x28DE      	GOTO       L_main8
L_main3:
0x00F8	0x28C4      	GOTO       L_main0
L_end_main:
0x00F9	0x28F9      	GOTO       $+0
; end of _main
Symbol List:
//** Routines locations **
//ADDRESS    SIZE    PROCEDURE
//----------------------------------------------
0x0003       [7]    _____DoICP
0x000A      [55]    _Mul_32x32_U
0x0041     [112]    _VDelay_ms
0x00B1      [12]    ___CC2DW
0x00BD      [61]    _main
//** Variables locations ** 
//ADDRESS    SIZE    VARIABLE
//----------------------------------------------
0x0000       [1]    INDF
0x0002       [1]    PCL
0x0003       [1]    STATUS
0x0004       [1]    FSR
0x0006       [1]    PORTB
0x0007       [1]    PORTC
0x000A       [1]    PCLATH
0x0020       [2]    ___DoICPAddr
0x0022       [2]    FARG_VDelay_ms_Time_ms
0x0024       [4]    VDelay_ms_NumberOfCyc_L0
0x0070       [1]    R0
0x0071       [1]    R1
0x0072       [1]    R2
0x0073       [1]    R3
0x0074       [1]    R4
0x0075       [1]    R5
0x0076       [1]    R6
0x0077       [1]    R7
0x0078       [1]    R8
0x0079       [1]    R9
0x007A       [1]    R10
0x007B       [1]    R11
0x007C       [1]    R12
0x007D       [1]    R13
0x007E       [1]    R14
0x007F       [1]    R15
0x0086       [1]    TRISB
